{
  "images" : [
    {
      "idiom" : "universal",
      "filename" : "apple-na-thin-and-light-laptop-original-imafgwevmdfcdmxu.png",
      "scale" : "1x"
    },
    {
      "idiom" : "universal",
      "filename" : "apple-na-thin-and-light-laptop-original-imafgwevmdfcdmxu@2x.png",
      "scale" : "2x"
    },
    {
      "idiom" : "universal",
      "filename" : "apple-na-thin-and-light-laptop-original-imafgwevmdfcdmxu@3x.png",
      "scale" : "3x"
    }
  ],
  "info" : {
    "version" : 1,
    "author" : "xcode"
  }
}